<svg width="18" height="18" viewBox="0 0 18 18" fill="none" xmlns="http://www.w3.org/2000/svg">
<path d="M13.125 0.8125C12.3802 0.8125 11.6927 0.998698 11.0625 1.37109C10.4323 1.74349 9.93099 2.24479 9.55859 2.875C9.1862 3.50521 9 4.19271 9 4.9375C9 5.2526 9.05729 5.59635 9.17188 5.96875C9.25781 6.26953 9.40104 6.64193 9.60156 7.08594C9.93099 7.81641 10.332 8.59701 10.8047 9.42773C11.3919 10.4303 11.9792 11.3542 12.5664 12.1992L13.125 13.0156L14.2422 11.3828C14.6862 10.7096 15.0872 10.0579 15.4453 9.42773C15.9323 8.59701 16.3333 7.81641 16.6484 7.08594C16.849 6.64193 16.9922 6.26953 17.0781 5.96875C17.1927 5.59635 17.25 5.2526 17.25 4.9375C17.25 4.19271 17.0638 3.50521 16.6914 2.875C16.319 2.24479 15.8177 1.74349 15.1875 1.37109C14.5573 0.998698 13.8698 0.8125 13.125 0.8125ZM6.22852 2.14453L0.75 4.48633V17.6777L6.27148 15.293L11.7715 17.3555L17.25 15.0137V9.01953C16.8919 9.70703 16.4336 10.4948 15.875 11.3828V14.1113L12.4375 15.5723V14.4551L11.0625 12.457V15.6367L6.9375 14.0898V3.86328L7.68945 4.14258C7.76107 3.66992 7.88281 3.22591 8.05469 2.81055L6.22852 2.14453ZM13.125 2.1875C13.6263 2.1875 14.0846 2.30924 14.5 2.55273C14.9297 2.79622 15.2663 3.13281 15.5098 3.5625C15.7533 3.97786 15.875 4.4362 15.875 4.9375C15.875 5.08073 15.832 5.30273 15.7461 5.60352C15.6602 5.88997 15.5456 6.19792 15.4023 6.52734C15.1445 7.10026 14.7578 7.83789 14.2422 8.74023C13.9128 9.31315 13.5762 9.85026 13.2324 10.3516L13.125 10.5234L13.0176 10.3516C12.6738 9.85026 12.3372 9.31315 12.0078 8.74023C11.4922 7.85221 11.1055 7.11458 10.8477 6.52734C10.7044 6.19792 10.5898 5.88997 10.5039 5.60352C10.418 5.30273 10.375 5.08073 10.375 4.9375C10.375 4.4362 10.4967 3.97786 10.7402 3.5625C10.9837 3.13281 11.3132 2.79622 11.7285 2.55273C12.1582 2.30924 12.6237 2.1875 13.125 2.1875ZM5.5625 3.90625V14.1113L2.125 15.5723V5.38867L5.5625 3.90625Z" fill="#CCCFD7"/>
</svg>
