********************************************************************************
* DUPLICATOR-PRO: Install-Log
* STEP-1 START @ 10:45:01
* VERSION: 1.3.38
* NOTICE: Do NOT post to public sites or forums!!
********************************************************************************
PACKAGE INFO________ CURRENT SERVER                         |ORIGINAL SERVER
PHP VERSION_________: 7.2.33                                |7.4.7
OS__________________: Linux                                 |Linux
CREATED_____________: 2020-09-23 22:09:29
WP VERSION__________: 5.5.1
DUP VERSION_________: 1.3.38
DB__________________: 10.3.24
DB TABLES___________: 42
DB ROWS_____________: 11,380
DB FILE SIZE________: 5.72MB
********************************************************************************
SERVER INFO
PHP_________________: 7.4.7 | SAPI: apache2handler
PHP MEMORY__________: 4294967296 | SUHOSIN: disabled
SERVER______________: Apache/2.4.43 (Unix) OpenSSL/1.1.1g PHP/7.4.7 mod_perl/2.0.11 Perl/v5.30.3
DOC ROOT____________: "/opt/lampp/htdocs/wsb-adv"
DOC ROOT 755________: true
LOG FILE 644________: true
REQUEST URL_________: "http://localhost/wsb-adv/dup-installer/main.installer.php"
********************************************************************************
USER INPUTS
ARCHIVE ENGINE______: "ziparchive"
SET DIR PERMS_______: 1
DIR PERMS VALUE_____: 1363
SET FILE PERMS______: 1
FILE PERMS VALUE____: 1204
SAFE MODE___________: "0"
LOGGING_____________: "1"
CONFIG MODE_________: "NEW"
FILE TIME___________: "current"
********************************************************************************


--------------------------------------
ARCHIVE SETUP
--------------------------------------
NAME________________: "/opt/lampp/htdocs/wsb-adv/20200828_wsb_[HASH]_20200923220929_archive.zip"
SIZE________________: 43.03MB

PRE-EXTRACT-CHECKS
- PASS: Apache '.htaccess' not found - no backup needed.
- PASS: Microsoft IIS 'web.config' not found - no backup needed.
- PASS: WordFence '.user.ini' not found - no backup needed.


START ZIP FILE EXTRACTION STANDARD >>> 

--------------------------------------
ARCHIVE SETUP
--------------------------------------
NAME________________: "/opt/lampp/htdocs/wsb-adv/20200828_wsb_[HASH]_20200923220929_archive.zip"
SIZE________________: 43.03MBFile timestamp set to Current: 2020-09-23 22:45:02
<<< ZipArchive Unzip Complete: true
--------------------------------------
POST-EXTACT-CHECKS
--------------------------------------
PERMISSION UPDATES:
    -DIRS:  '755'
    -FILES: '644'
[PHP ERR][WARN] MSG:chmod(): Operation not permitted [CODE:2|FILE:/opt/lampp/htdocs/wsb-adv/dup-installer/lib/snaplib/class.snaplib.u.io.php|LINE:600]
Permissions setting on file '/opt/lampp/htdocs/wsb-adv/._20200828_wsb_[HASH]_20200923220929_archive.zip' failed
[PHP ERR][WARN] MSG:chmod(): Operation not permitted [CODE:2|FILE:/opt/lampp/htdocs/wsb-adv/dup-installer/lib/snaplib/class.snaplib.u.io.php|LINE:600]
Permissions setting on file '/opt/lampp/htdocs/wsb-adv/20200828_wsb_[HASH]_20200923220929_archive.zip' failed
[PHP ERR][WARN] MSG:chmod(): Operation not permitted [CODE:2|FILE:/opt/lampp/htdocs/wsb-adv/dup-installer/lib/snaplib/class.snaplib.u.io.php|LINE:600]
Permissions setting on file '/opt/lampp/htdocs/wsb-adv/installer.php' failed
[PHP ERR][WARN] MSG:chmod(): Operation not permitted [CODE:2|FILE:/opt/lampp/htdocs/wsb-adv/dup-installer/lib/snaplib/class.snaplib.u.io.php|LINE:600]
Permissions setting on file '/opt/lampp/htdocs/wsb-adv/._installer.php' failed

STEP-1 COMPLETE @ 10:45:02 - RUNTIME: 1.0318 sec.



********************************************************************************
* DUPLICATOR-LITE INSTALL-LOG
* STEP-2 START @ 10:45:16
* NOTICE: Do NOT post to public sites or forums!!
********************************************************************************
USER INPUTS
VIEW MODE___________: "basic"
DB ACTION___________: "empty"
DB HOST_____________: "**OBSCURED**"
DB NAME_____________: "**OBSCURED**"
DB PASS_____________: "**OBSCURED**"
DB PORT_____________: "**OBSCURED**"
NON-BREAKING SPACES_: false
MYSQL MODE__________: "DEFAULT"
MYSQL MODE OPTS_____: ""
CHARSET_____________: "utf8"
COLLATE_____________: "utf8_general_ci"
COLLATE FB__________: false
VIEW CREATION_______: true
STORED PROCEDURE____: true
********************************************************************************

--------------------------------------
DATABASE-ENVIRONMENT
--------------------------------------
MYSQL VERSION:	This Server: 10.4.13 -- Build Server: 10.3.24
FILE SIZE:	dup-database__[HASH].sql (2.49MB)
TIMEOUT:	5000
MAXPACK:	1048576
SQLMODE:	STRICT_TRANS_TABLES,ERROR_FOR_DIVISION_BY_ZERO,NO_AUTO_CREATE_USER,NO_ENGINE_SUBSTITUTION
NEW SQL FILE:	[/opt/lampp/htdocs/wsb-adv/dup-installer/dup-installer-data__[HASH].sql]
COLLATE FB:	Off
[PHP ERR][WARN] MSG:count(): Parameter must be an array or an object that implements Countable [CODE:2|FILE:/opt/lampp/htdocs/wsb-adv/dup-installer/ctrls/ctrl.s2.dbinstall.php|LINE:392]
--------------------------------------
DATABASE RESULTS
--------------------------------------
DB VIEWS:	enabled
DB PROCEDURES:	enabled
ERRORS FOUND:	0
DROPPED TABLES:	0
RENAMED TABLES:	0
QUERIES RAN:	12132

wp_alm: (1)
wp_commentmeta: (0)
wp_comments: (1)
wp_duplicator_packages: (0)
wp_icl_content_status: (0)
wp_icl_core_status: (0)
wp_icl_flags: (64)
wp_icl_languages: (64)
wp_icl_languages_translations: (4096)
wp_icl_locale_map: (2)
wp_icl_message_status: (0)
wp_icl_mo_files_domains: (13)
wp_icl_node: (0)
wp_icl_reminders: (0)
wp_icl_string_batches: (0)
wp_icl_string_packages: (0)
wp_icl_string_pages: (0)
wp_icl_string_positions: (70)
wp_icl_string_status: (0)
wp_icl_string_translations: (18)
wp_icl_string_urls: (0)
wp_icl_strings: (135)
wp_icl_translate: (0)
wp_icl_translate_job: (0)
wp_icl_translation_batches: (0)
wp_icl_translation_status: (33)
wp_icl_translations: (169)
wp_links: (0)
wp_options: (447)
wp_postmeta: (6040)
wp_posts: (368)
wp_term_relationships: (127)
wp_term_taxonomy: (19)
wp_termmeta: (0)
wp_terms: (19)
wp_usermeta: (39)
wp_users: (1)
wp_yoast_indexable: (166)
wp_yoast_indexable_hierarchy: (2)
wp_yoast_migrations: (18)
wp_yoast_primary_term: (0)
wp_yoast_seo_links: (133)
Removed '42' cache/transient rows

INSERT DATA RUNTIME: 1.5007 sec.
STEP-2 COMPLETE @ 10:45:18 - RUNTIME: 1.5271 sec.

====================================
SET SEARCH AND REPLACE LIST
====================================


********************************************************************************
DUPLICATOR PRO INSTALL-LOG
STEP-3 START @ 10:45:27
NOTICE: Do NOT post to public sites or forums
********************************************************************************
CHARSET SERVER:	"utf8"
CHARSET CLIENT:	"utf8"
********************************************************************************
OPTIONS:
blogname______________: "WSB"
postguid______________: false
fullsearch____________: false
path_old______________: "/home2/jucamill/public_html/homolog/wsb-advocacia"
path_new______________: "/opt/lampp/htdocs/wsb-adv"
siteurl_______________: "http://localhost:8080/wsb-adv"
url_old_______________: "https://jucamillo.com.br/homolog/wsb-advocacia"
url_new_______________: "http://localhost:8080/wsb-adv"
maxSerializeStrlen____: 4000000
replaceMail___________: false
dbcharset_____________: "utf8"
dbcollate_____________: "utf8_general_ci"
wp_mail_______________: ""
wp_nickname___________: ""
wp_first_name_________: ""
wp_last_name__________: ""
ssl_admin_____________: false
cache_wp______________: true
cache_path____________: false
exe_safe_mode_________: false
config_mode___________: "NEW"
********************************************************************************


====================================
RUN SEARCH AND REPLACE
====================================

EVALUATE TABLE: "wp_alm"__________________________________________[ROWS:     1][PG:   1][SCAN:text columns]
	SEARCH  1:"/home2/jucamill/public_html/homolog/wsb-advocacia" => "/opt/lampp/htdocs/wsb-adv"
	SEARCH  2:"\/home2\/jucamill\/public_html\/homolog\/wsb-advocacia" => "\/opt\/lampp\/htdocs\/wsb-adv"
	SEARCH  3:"%2Fhome2%2Fjucamill%2Fpublic_html%2Fhomolog%2Fwsb-advocacia" => "%2Fopt%2Flampp%2Fhtdocs%2Fwsb-adv"
	SEARCH  4:"\home2\jucamill\public_html\homolog\wsb-advocacia" => "/opt/lampp/htdocs/wsb-adv"
	SEARCH  5:"\\home2\\jucamill\\public_html\\homolog\\wsb-advocacia" => "\/opt\/lampp\/htdocs\/wsb-adv"
	SEARCH  6:"%5Chome2%5Cjucamill%5Cpublic_html%5Chomolog%5Cwsb-advocacia" => "%2Fopt%2Flampp%2Fhtdocs%2Fwsb-adv"
	SEARCH  7:"//jucamillo.com.br/homolog/wsb-advocacia" ========> "//localhost:8080/wsb-adv"
	SEARCH  8:"\/\/jucamillo.com.br\/homolog\/wsb-advocacia" ====> "\/\/localhost:8080\/wsb-adv"
	SEARCH  9:"%2F%2Fjucamillo.com.br%2Fhomolog%2Fwsb-advocacia" => "%2F%2Flocalhost%3A8080%2Fwsb-adv"
	SEARCH 10:"//www.jucamillo.com.br/homolog/wsb-advocacia" ====> "//localhost:8080/wsb-adv"
	SEARCH 11:"\/\/www.jucamillo.com.br\/homolog\/wsb-advocacia" => "\/\/localhost:8080\/wsb-adv"
	SEARCH 12:"%2F%2Fwww.jucamillo.com.br%2Fhomolog%2Fwsb-advocacia" => "%2F%2Flocalhost%3A8080%2Fwsb-adv"
	SEARCH 13:"https://localhost:8080/wsb-adv" ==================> "http://localhost:8080/wsb-adv"
	SEARCH 14:"https:\/\/localhost:8080\/wsb-adv" ===============> "http:\/\/localhost:8080\/wsb-adv"
	SEARCH 15:"https%3A%2F%2Flocalhost%3A8080%2Fwsb-adv" ========> "http%3A%2F%2Flocalhost%3A8080%2Fwsb-adv"

EVALUATE TABLE: "wp_commentmeta"__________________________________[ROWS:     0][PG:   0][SCAN:no columns  ]

EVALUATE TABLE: "wp_comments"_____________________________________[ROWS:     1][PG:   1][SCAN:text columns]
	SEARCH  1:"/home2/jucamill/public_html/homolog/wsb-advocacia" => "/opt/lampp/htdocs/wsb-adv"
	SEARCH  2:"\/home2\/jucamill\/public_html\/homolog\/wsb-advocacia" => "\/opt\/lampp\/htdocs\/wsb-adv"
	SEARCH  3:"%2Fhome2%2Fjucamill%2Fpublic_html%2Fhomolog%2Fwsb-advocacia" => "%2Fopt%2Flampp%2Fhtdocs%2Fwsb-adv"
	SEARCH  4:"\home2\jucamill\public_html\homolog\wsb-advocacia" => "/opt/lampp/htdocs/wsb-adv"
	SEARCH  5:"\\home2\\jucamill\\public_html\\homolog\\wsb-advocacia" => "\/opt\/lampp\/htdocs\/wsb-adv"
	SEARCH  6:"%5Chome2%5Cjucamill%5Cpublic_html%5Chomolog%5Cwsb-advocacia" => "%2Fopt%2Flampp%2Fhtdocs%2Fwsb-adv"
	SEARCH  7:"//jucamillo.com.br/homolog/wsb-advocacia" ========> "//localhost:8080/wsb-adv"
	SEARCH  8:"\/\/jucamillo.com.br\/homolog\/wsb-advocacia" ====> "\/\/localhost:8080\/wsb-adv"
	SEARCH  9:"%2F%2Fjucamillo.com.br%2Fhomolog%2Fwsb-advocacia" => "%2F%2Flocalhost%3A8080%2Fwsb-adv"
	SEARCH 10:"//www.jucamillo.com.br/homolog/wsb-advocacia" ====> "//localhost:8080/wsb-adv"
	SEARCH 11:"\/\/www.jucamillo.com.br\/homolog\/wsb-advocacia" => "\/\/localhost:8080\/wsb-adv"
	SEARCH 12:"%2F%2Fwww.jucamillo.com.br%2Fhomolog%2Fwsb-advocacia" => "%2F%2Flocalhost%3A8080%2Fwsb-adv"
	SEARCH 13:"https://localhost:8080/wsb-adv" ==================> "http://localhost:8080/wsb-adv"
	SEARCH 14:"https:\/\/localhost:8080\/wsb-adv" ===============> "http:\/\/localhost:8080\/wsb-adv"
	SEARCH 15:"https%3A%2F%2Flocalhost%3A8080%2Fwsb-adv" ========> "http%3A%2F%2Flocalhost%3A8080%2Fwsb-adv"

EVALUATE TABLE: "wp_duplicator_packages"__________________________[ROWS:     0][PG:   0][SCAN:no columns  ]

EVALUATE TABLE: "wp_icl_content_status"___________________________[ROWS:     0][PG:   0][SCAN:no columns  ]

EVALUATE TABLE: "wp_icl_core_status"______________________________[ROWS:     0][PG:   0][SCAN:no columns  ]

EVALUATE TABLE: "wp_icl_flags"____________________________________[ROWS:    64][PG:   1][SCAN:text columns]
	SEARCH  1:"/home2/jucamill/public_html/homolog/wsb-advocacia" => "/opt/lampp/htdocs/wsb-adv"
	SEARCH  2:"\/home2\/jucamill\/public_html\/homolog\/wsb-advocacia" => "\/opt\/lampp\/htdocs\/wsb-adv"
	SEARCH  3:"%2Fhome2%2Fjucamill%2Fpublic_html%2Fhomolog%2Fwsb-advocacia" => "%2Fopt%2Flampp%2Fhtdocs%2Fwsb-adv"
	SEARCH  4:"\home2\jucamill\public_html\homolog\wsb-advocacia" => "/opt/lampp/htdocs/wsb-adv"
	SEARCH  5:"\\home2\\jucamill\\public_html\\homolog\\wsb-advocacia" => "\/opt\/lampp\/htdocs\/wsb-adv"
	SEARCH  6:"%5Chome2%5Cjucamill%5Cpublic_html%5Chomolog%5Cwsb-advocacia" => "%2Fopt%2Flampp%2Fhtdocs%2Fwsb-adv"
	SEARCH  7:"//jucamillo.com.br/homolog/wsb-advocacia" ========> "//localhost:8080/wsb-adv"
	SEARCH  8:"\/\/jucamillo.com.br\/homolog\/wsb-advocacia" ====> "\/\/localhost:8080\/wsb-adv"
	SEARCH  9:"%2F%2Fjucamillo.com.br%2Fhomolog%2Fwsb-advocacia" => "%2F%2Flocalhost%3A8080%2Fwsb-adv"
	SEARCH 10:"//www.jucamillo.com.br/homolog/wsb-advocacia" ====> "//localhost:8080/wsb-adv"
	SEARCH 11:"\/\/www.jucamillo.com.br\/homolog\/wsb-advocacia" => "\/\/localhost:8080\/wsb-adv"
	SEARCH 12:"%2F%2Fwww.jucamillo.com.br%2Fhomolog%2Fwsb-advocacia" => "%2F%2Flocalhost%3A8080%2Fwsb-adv"
	SEARCH 13:"https://localhost:8080/wsb-adv" ==================> "http://localhost:8080/wsb-adv"
	SEARCH 14:"https:\/\/localhost:8080\/wsb-adv" ===============> "http:\/\/localhost:8080\/wsb-adv"
	SEARCH 15:"https%3A%2F%2Flocalhost%3A8080%2Fwsb-adv" ========> "http%3A%2F%2Flocalhost%3A8080%2Fwsb-adv"

EVALUATE TABLE: "wp_icl_languages"________________________________[ROWS:    64][PG:   1][SCAN:text columns]
	SEARCH  1:"/home2/jucamill/public_html/homolog/wsb-advocacia" => "/opt/lampp/htdocs/wsb-adv"
	SEARCH  2:"\/home2\/jucamill\/public_html\/homolog\/wsb-advocacia" => "\/opt\/lampp\/htdocs\/wsb-adv"
	SEARCH  3:"%2Fhome2%2Fjucamill%2Fpublic_html%2Fhomolog%2Fwsb-advocacia" => "%2Fopt%2Flampp%2Fhtdocs%2Fwsb-adv"
	SEARCH  4:"\home2\jucamill\public_html\homolog\wsb-advocacia" => "/opt/lampp/htdocs/wsb-adv"
	SEARCH  5:"\\home2\\jucamill\\public_html\\homolog\\wsb-advocacia" => "\/opt\/lampp\/htdocs\/wsb-adv"
	SEARCH  6:"%5Chome2%5Cjucamill%5Cpublic_html%5Chomolog%5Cwsb-advocacia" => "%2Fopt%2Flampp%2Fhtdocs%2Fwsb-adv"
	SEARCH  7:"//jucamillo.com.br/homolog/wsb-advocacia" ========> "//localhost:8080/wsb-adv"
	SEARCH  8:"\/\/jucamillo.com.br\/homolog\/wsb-advocacia" ====> "\/\/localhost:8080\/wsb-adv"
	SEARCH  9:"%2F%2Fjucamillo.com.br%2Fhomolog%2Fwsb-advocacia" => "%2F%2Flocalhost%3A8080%2Fwsb-adv"
	SEARCH 10:"//www.jucamillo.com.br/homolog/wsb-advocacia" ====> "//localhost:8080/wsb-adv"
	SEARCH 11:"\/\/www.jucamillo.com.br\/homolog\/wsb-advocacia" => "\/\/localhost:8080\/wsb-adv"
	SEARCH 12:"%2F%2Fwww.jucamillo.com.br%2Fhomolog%2Fwsb-advocacia" => "%2F%2Flocalhost%3A8080%2Fwsb-adv"
	SEARCH 13:"https://localhost:8080/wsb-adv" ==================> "http://localhost:8080/wsb-adv"
	SEARCH 14:"https:\/\/localhost:8080\/wsb-adv" ===============> "http:\/\/localhost:8080\/wsb-adv"
	SEARCH 15:"https%3A%2F%2Flocalhost%3A8080%2Fwsb-adv" ========> "http%3A%2F%2Flocalhost%3A8080%2Fwsb-adv"

EVALUATE TABLE: "wp_icl_languages_translations"___________________[ROWS:  4096][PG:   2][SCAN:text columns]
	SEARCH  1:"/home2/jucamill/public_html/homolog/wsb-advocacia" => "/opt/lampp/htdocs/wsb-adv"
	SEARCH  2:"\/home2\/jucamill\/public_html\/homolog\/wsb-advocacia" => "\/opt\/lampp\/htdocs\/wsb-adv"
	SEARCH  3:"%2Fhome2%2Fjucamill%2Fpublic_html%2Fhomolog%2Fwsb-advocacia" => "%2Fopt%2Flampp%2Fhtdocs%2Fwsb-adv"
	SEARCH  4:"\home2\jucamill\public_html\homolog\wsb-advocacia" => "/opt/lampp/htdocs/wsb-adv"
	SEARCH  5:"\\home2\\jucamill\\public_html\\homolog\\wsb-advocacia" => "\/opt\/lampp\/htdocs\/wsb-adv"
	SEARCH  6:"%5Chome2%5Cjucamill%5Cpublic_html%5Chomolog%5Cwsb-advocacia" => "%2Fopt%2Flampp%2Fhtdocs%2Fwsb-adv"
	SEARCH  7:"//jucamillo.com.br/homolog/wsb-advocacia" ========> "//localhost:8080/wsb-adv"
	SEARCH  8:"\/\/jucamillo.com.br\/homolog\/wsb-advocacia" ====> "\/\/localhost:8080\/wsb-adv"
	SEARCH  9:"%2F%2Fjucamillo.com.br%2Fhomolog%2Fwsb-advocacia" => "%2F%2Flocalhost%3A8080%2Fwsb-adv"
	SEARCH 10:"//www.jucamillo.com.br/homolog/wsb-advocacia" ====> "//localhost:8080/wsb-adv"
	SEARCH 11:"\/\/www.jucamillo.com.br\/homolog\/wsb-advocacia" => "\/\/localhost:8080\/wsb-adv"
	SEARCH 12:"%2F%2Fwww.jucamillo.com.br%2Fhomolog%2Fwsb-advocacia" => "%2F%2Flocalhost%3A8080%2Fwsb-adv"
	SEARCH 13:"https://localhost:8080/wsb-adv" ==================> "http://localhost:8080/wsb-adv"
	SEARCH 14:"https:\/\/localhost:8080\/wsb-adv" ===============> "http:\/\/localhost:8080\/wsb-adv"
	SEARCH 15:"https%3A%2F%2Flocalhost%3A8080%2Fwsb-adv" ========> "http%3A%2F%2Flocalhost%3A8080%2Fwsb-adv"

EVALUATE TABLE: "wp_icl_locale_map"_______________________________[ROWS:     2][PG:   1][SCAN:text columns]
	SEARCH  1:"/home2/jucamill/public_html/homolog/wsb-advocacia" => "/opt/lampp/htdocs/wsb-adv"
	SEARCH  2:"\/home2\/jucamill\/public_html\/homolog\/wsb-advocacia" => "\/opt\/lampp\/htdocs\/wsb-adv"
	SEARCH  3:"%2Fhome2%2Fjucamill%2Fpublic_html%2Fhomolog%2Fwsb-advocacia" => "%2Fopt%2Flampp%2Fhtdocs%2Fwsb-adv"
	SEARCH  4:"\home2\jucamill\public_html\homolog\wsb-advocacia" => "/opt/lampp/htdocs/wsb-adv"
	SEARCH  5:"\\home2\\jucamill\\public_html\\homolog\\wsb-advocacia" => "\/opt\/lampp\/htdocs\/wsb-adv"
	SEARCH  6:"%5Chome2%5Cjucamill%5Cpublic_html%5Chomolog%5Cwsb-advocacia" => "%2Fopt%2Flampp%2Fhtdocs%2Fwsb-adv"
	SEARCH  7:"//jucamillo.com.br/homolog/wsb-advocacia" ========> "//localhost:8080/wsb-adv"
	SEARCH  8:"\/\/jucamillo.com.br\/homolog\/wsb-advocacia" ====> "\/\/localhost:8080\/wsb-adv"
	SEARCH  9:"%2F%2Fjucamillo.com.br%2Fhomolog%2Fwsb-advocacia" => "%2F%2Flocalhost%3A8080%2Fwsb-adv"
	SEARCH 10:"//www.jucamillo.com.br/homolog/wsb-advocacia" ====> "//localhost:8080/wsb-adv"
	SEARCH 11:"\/\/www.jucamillo.com.br\/homolog\/wsb-advocacia" => "\/\/localhost:8080\/wsb-adv"
	SEARCH 12:"%2F%2Fwww.jucamillo.com.br%2Fhomolog%2Fwsb-advocacia" => "%2F%2Flocalhost%3A8080%2Fwsb-adv"
	SEARCH 13:"https://localhost:8080/wsb-adv" ==================> "http://localhost:8080/wsb-adv"
	SEARCH 14:"https:\/\/localhost:8080\/wsb-adv" ===============> "http:\/\/localhost:8080\/wsb-adv"
	SEARCH 15:"https%3A%2F%2Flocalhost%3A8080%2Fwsb-adv" ========> "http%3A%2F%2Flocalhost%3A8080%2Fwsb-adv"

EVALUATE TABLE: "wp_icl_message_status"___________________________[ROWS:     0][PG:   0][SCAN:no columns  ]

EVALUATE TABLE: "wp_icl_mo_files_domains"_________________________[ROWS:    13][PG:   1][SCAN:text columns]
	SEARCH  1:"/home2/jucamill/public_html/homolog/wsb-advocacia" => "/opt/lampp/htdocs/wsb-adv"
	SEARCH  2:"\/home2\/jucamill\/public_html\/homolog\/wsb-advocacia" => "\/opt\/lampp\/htdocs\/wsb-adv"
	SEARCH  3:"%2Fhome2%2Fjucamill%2Fpublic_html%2Fhomolog%2Fwsb-advocacia" => "%2Fopt%2Flampp%2Fhtdocs%2Fwsb-adv"
	SEARCH  4:"\home2\jucamill\public_html\homolog\wsb-advocacia" => "/opt/lampp/htdocs/wsb-adv"
	SEARCH  5:"\\home2\\jucamill\\public_html\\homolog\\wsb-advocacia" => "\/opt\/lampp\/htdocs\/wsb-adv"
	SEARCH  6:"%5Chome2%5Cjucamill%5Cpublic_html%5Chomolog%5Cwsb-advocacia" => "%2Fopt%2Flampp%2Fhtdocs%2Fwsb-adv"
	SEARCH  7:"//jucamillo.com.br/homolog/wsb-advocacia" ========> "//localhost:8080/wsb-adv"
	SEARCH  8:"\/\/jucamillo.com.br\/homolog\/wsb-advocacia" ====> "\/\/localhost:8080\/wsb-adv"
	SEARCH  9:"%2F%2Fjucamillo.com.br%2Fhomolog%2Fwsb-advocacia" => "%2F%2Flocalhost%3A8080%2Fwsb-adv"
	SEARCH 10:"//www.jucamillo.com.br/homolog/wsb-advocacia" ====> "//localhost:8080/wsb-adv"
	SEARCH 11:"\/\/www.jucamillo.com.br\/homolog\/wsb-advocacia" => "\/\/localhost:8080\/wsb-adv"
	SEARCH 12:"%2F%2Fwww.jucamillo.com.br%2Fhomolog%2Fwsb-advocacia" => "%2F%2Flocalhost%3A8080%2Fwsb-adv"
	SEARCH 13:"https://localhost:8080/wsb-adv" ==================> "http://localhost:8080/wsb-adv"
	SEARCH 14:"https:\/\/localhost:8080\/wsb-adv" ===============> "http:\/\/localhost:8080\/wsb-adv"
	SEARCH 15:"https%3A%2F%2Flocalhost%3A8080%2Fwsb-adv" ========> "http%3A%2F%2Flocalhost%3A8080%2Fwsb-adv"

EVALUATE TABLE: "wp_icl_node"_____________________________________[ROWS:     0][PG:   0][SCAN:no columns  ]

EVALUATE TABLE: "wp_icl_reminders"________________________________[ROWS:     0][PG:   0][SCAN:no columns  ]

EVALUATE TABLE: "wp_icl_string_batches"___________________________[ROWS:     0][PG:   0][SCAN:no columns  ]

EVALUATE TABLE: "wp_icl_string_packages"__________________________[ROWS:     0][PG:   0][SCAN:no columns  ]

EVALUATE TABLE: "wp_icl_string_pages"_____________________________[ROWS:     0][PG:   0][SCAN:no columns  ]

EVALUATE TABLE: "wp_icl_string_positions"_________________________[ROWS:    70][PG:   1][SCAN:text columns]
	SEARCH  1:"/home2/jucamill/public_html/homolog/wsb-advocacia" => "/opt/lampp/htdocs/wsb-adv"
	SEARCH  2:"\/home2\/jucamill\/public_html\/homolog\/wsb-advocacia" => "\/opt\/lampp\/htdocs\/wsb-adv"
	SEARCH  3:"%2Fhome2%2Fjucamill%2Fpublic_html%2Fhomolog%2Fwsb-advocacia" => "%2Fopt%2Flampp%2Fhtdocs%2Fwsb-adv"
	SEARCH  4:"\home2\jucamill\public_html\homolog\wsb-advocacia" => "/opt/lampp/htdocs/wsb-adv"
	SEARCH  5:"\\home2\\jucamill\\public_html\\homolog\\wsb-advocacia" => "\/opt\/lampp\/htdocs\/wsb-adv"
	SEARCH  6:"%5Chome2%5Cjucamill%5Cpublic_html%5Chomolog%5Cwsb-advocacia" => "%2Fopt%2Flampp%2Fhtdocs%2Fwsb-adv"
	SEARCH  7:"//jucamillo.com.br/homolog/wsb-advocacia" ========> "//localhost:8080/wsb-adv"
	SEARCH  8:"\/\/jucamillo.com.br\/homolog\/wsb-advocacia" ====> "\/\/localhost:8080\/wsb-adv"
	SEARCH  9:"%2F%2Fjucamillo.com.br%2Fhomolog%2Fwsb-advocacia" => "%2F%2Flocalhost%3A8080%2Fwsb-adv"
	SEARCH 10:"//www.jucamillo.com.br/homolog/wsb-advocacia" ====> "//localhost:8080/wsb-adv"
	SEARCH 11:"\/\/www.jucamillo.com.br\/homolog\/wsb-advocacia" => "\/\/localhost:8080\/wsb-adv"
	SEARCH 12:"%2F%2Fwww.jucamillo.com.br%2Fhomolog%2Fwsb-advocacia" => "%2F%2Flocalhost%3A8080%2Fwsb-adv"
	SEARCH 13:"https://localhost:8080/wsb-adv" ==================> "http://localhost:8080/wsb-adv"
	SEARCH 14:"https:\/\/localhost:8080\/wsb-adv" ===============> "http:\/\/localhost:8080\/wsb-adv"
	SEARCH 15:"https%3A%2F%2Flocalhost%3A8080%2Fwsb-adv" ========> "http%3A%2F%2Flocalhost%3A8080%2Fwsb-adv"

EVALUATE TABLE: "wp_icl_string_status"____________________________[ROWS:     0][PG:   0][SCAN:no columns  ]

EVALUATE TABLE: "wp_icl_string_translations"______________________[ROWS:    18][PG:   1][SCAN:text columns]
	SEARCH  1:"/home2/jucamill/public_html/homolog/wsb-advocacia" => "/opt/lampp/htdocs/wsb-adv"
	SEARCH  2:"\/home2\/jucamill\/public_html\/homolog\/wsb-advocacia" => "\/opt\/lampp\/htdocs\/wsb-adv"
	SEARCH  3:"%2Fhome2%2Fjucamill%2Fpublic_html%2Fhomolog%2Fwsb-advocacia" => "%2Fopt%2Flampp%2Fhtdocs%2Fwsb-adv"
	SEARCH  4:"\home2\jucamill\public_html\homolog\wsb-advocacia" => "/opt/lampp/htdocs/wsb-adv"
	SEARCH  5:"\\home2\\jucamill\\public_html\\homolog\\wsb-advocacia" => "\/opt\/lampp\/htdocs\/wsb-adv"
	SEARCH  6:"%5Chome2%5Cjucamill%5Cpublic_html%5Chomolog%5Cwsb-advocacia" => "%2Fopt%2Flampp%2Fhtdocs%2Fwsb-adv"
	SEARCH  7:"//jucamillo.com.br/homolog/wsb-advocacia" ========> "//localhost:8080/wsb-adv"
	SEARCH  8:"\/\/jucamillo.com.br\/homolog\/wsb-advocacia" ====> "\/\/localhost:8080\/wsb-adv"
	SEARCH  9:"%2F%2Fjucamillo.com.br%2Fhomolog%2Fwsb-advocacia" => "%2F%2Flocalhost%3A8080%2Fwsb-adv"
	SEARCH 10:"//www.jucamillo.com.br/homolog/wsb-advocacia" ====> "//localhost:8080/wsb-adv"
	SEARCH 11:"\/\/www.jucamillo.com.br\/homolog\/wsb-advocacia" => "\/\/localhost:8080\/wsb-adv"
	SEARCH 12:"%2F%2Fwww.jucamillo.com.br%2Fhomolog%2Fwsb-advocacia" => "%2F%2Flocalhost%3A8080%2Fwsb-adv"
	SEARCH 13:"https://localhost:8080/wsb-adv" ==================> "http://localhost:8080/wsb-adv"
	SEARCH 14:"https:\/\/localhost:8080\/wsb-adv" ===============> "http:\/\/localhost:8080\/wsb-adv"
	SEARCH 15:"https%3A%2F%2Flocalhost%3A8080%2Fwsb-adv" ========> "http%3A%2F%2Flocalhost%3A8080%2Fwsb-adv"

EVALUATE TABLE: "wp_icl_string_urls"______________________________[ROWS:     0][PG:   0][SCAN:no columns  ]

EVALUATE TABLE: "wp_icl_strings"__________________________________[ROWS:   135][PG:   1][SCAN:text columns]
	SEARCH  1:"/home2/jucamill/public_html/homolog/wsb-advocacia" => "/opt/lampp/htdocs/wsb-adv"
	SEARCH  2:"\/home2\/jucamill\/public_html\/homolog\/wsb-advocacia" => "\/opt\/lampp\/htdocs\/wsb-adv"
	SEARCH  3:"%2Fhome2%2Fjucamill%2Fpublic_html%2Fhomolog%2Fwsb-advocacia" => "%2Fopt%2Flampp%2Fhtdocs%2Fwsb-adv"
	SEARCH  4:"\home2\jucamill\public_html\homolog\wsb-advocacia" => "/opt/lampp/htdocs/wsb-adv"
	SEARCH  5:"\\home2\\jucamill\\public_html\\homolog\\wsb-advocacia" => "\/opt\/lampp\/htdocs\/wsb-adv"
	SEARCH  6:"%5Chome2%5Cjucamill%5Cpublic_html%5Chomolog%5Cwsb-advocacia" => "%2Fopt%2Flampp%2Fhtdocs%2Fwsb-adv"
	SEARCH  7:"//jucamillo.com.br/homolog/wsb-advocacia" ========> "//localhost:8080/wsb-adv"
	SEARCH  8:"\/\/jucamillo.com.br\/homolog\/wsb-advocacia" ====> "\/\/localhost:8080\/wsb-adv"
	SEARCH  9:"%2F%2Fjucamillo.com.br%2Fhomolog%2Fwsb-advocacia" => "%2F%2Flocalhost%3A8080%2Fwsb-adv"
	SEARCH 10:"//www.jucamillo.com.br/homolog/wsb-advocacia" ====> "//localhost:8080/wsb-adv"
	SEARCH 11:"\/\/www.jucamillo.com.br\/homolog\/wsb-advocacia" => "\/\/localhost:8080\/wsb-adv"
	SEARCH 12:"%2F%2Fwww.jucamillo.com.br%2Fhomolog%2Fwsb-advocacia" => "%2F%2Flocalhost%3A8080%2Fwsb-adv"
	SEARCH 13:"https://localhost:8080/wsb-adv" ==================> "http://localhost:8080/wsb-adv"
	SEARCH 14:"https:\/\/localhost:8080\/wsb-adv" ===============> "http:\/\/localhost:8080\/wsb-adv"
	SEARCH 15:"https%3A%2F%2Flocalhost%3A8080%2Fwsb-adv" ========> "http%3A%2F%2Flocalhost%3A8080%2Fwsb-adv"

EVALUATE TABLE: "wp_icl_translate"________________________________[ROWS:     0][PG:   0][SCAN:no columns  ]

EVALUATE TABLE: "wp_icl_translate_job"____________________________[ROWS:     0][PG:   0][SCAN:no columns  ]

EVALUATE TABLE: "wp_icl_translation_batches"______________________[ROWS:     0][PG:   0][SCAN:no columns  ]

EVALUATE TABLE: "wp_icl_translation_status"_______________________[ROWS:    33][PG:   1][SCAN:text columns]
	SEARCH  1:"/home2/jucamill/public_html/homolog/wsb-advocacia" => "/opt/lampp/htdocs/wsb-adv"
	SEARCH  2:"\/home2\/jucamill\/public_html\/homolog\/wsb-advocacia" => "\/opt\/lampp\/htdocs\/wsb-adv"
	SEARCH  3:"%2Fhome2%2Fjucamill%2Fpublic_html%2Fhomolog%2Fwsb-advocacia" => "%2Fopt%2Flampp%2Fhtdocs%2Fwsb-adv"
	SEARCH  4:"\home2\jucamill\public_html\homolog\wsb-advocacia" => "/opt/lampp/htdocs/wsb-adv"
	SEARCH  5:"\\home2\\jucamill\\public_html\\homolog\\wsb-advocacia" => "\/opt\/lampp\/htdocs\/wsb-adv"
	SEARCH  6:"%5Chome2%5Cjucamill%5Cpublic_html%5Chomolog%5Cwsb-advocacia" => "%2Fopt%2Flampp%2Fhtdocs%2Fwsb-adv"
	SEARCH  7:"//jucamillo.com.br/homolog/wsb-advocacia" ========> "//localhost:8080/wsb-adv"
	SEARCH  8:"\/\/jucamillo.com.br\/homolog\/wsb-advocacia" ====> "\/\/localhost:8080\/wsb-adv"
	SEARCH  9:"%2F%2Fjucamillo.com.br%2Fhomolog%2Fwsb-advocacia" => "%2F%2Flocalhost%3A8080%2Fwsb-adv"
	SEARCH 10:"//www.jucamillo.com.br/homolog/wsb-advocacia" ====> "//localhost:8080/wsb-adv"
	SEARCH 11:"\/\/www.jucamillo.com.br\/homolog\/wsb-advocacia" => "\/\/localhost:8080\/wsb-adv"
	SEARCH 12:"%2F%2Fwww.jucamillo.com.br%2Fhomolog%2Fwsb-advocacia" => "%2F%2Flocalhost%3A8080%2Fwsb-adv"
	SEARCH 13:"https://localhost:8080/wsb-adv" ==================> "http://localhost:8080/wsb-adv"
	SEARCH 14:"https:\/\/localhost:8080\/wsb-adv" ===============> "http:\/\/localhost:8080\/wsb-adv"
	SEARCH 15:"https%3A%2F%2Flocalhost%3A8080%2Fwsb-adv" ========> "http%3A%2F%2Flocalhost%3A8080%2Fwsb-adv"

EVALUATE TABLE: "wp_icl_translations"_____________________________[ROWS:   169][PG:   1][SCAN:text columns]
	SEARCH  1:"/home2/jucamill/public_html/homolog/wsb-advocacia" => "/opt/lampp/htdocs/wsb-adv"
	SEARCH  2:"\/home2\/jucamill\/public_html\/homolog\/wsb-advocacia" => "\/opt\/lampp\/htdocs\/wsb-adv"
	SEARCH  3:"%2Fhome2%2Fjucamill%2Fpublic_html%2Fhomolog%2Fwsb-advocacia" => "%2Fopt%2Flampp%2Fhtdocs%2Fwsb-adv"
	SEARCH  4:"\home2\jucamill\public_html\homolog\wsb-advocacia" => "/opt/lampp/htdocs/wsb-adv"
	SEARCH  5:"\\home2\\jucamill\\public_html\\homolog\\wsb-advocacia" => "\/opt\/lampp\/htdocs\/wsb-adv"
	SEARCH  6:"%5Chome2%5Cjucamill%5Cpublic_html%5Chomolog%5Cwsb-advocacia" => "%2Fopt%2Flampp%2Fhtdocs%2Fwsb-adv"
	SEARCH  7:"//jucamillo.com.br/homolog/wsb-advocacia" ========> "//localhost:8080/wsb-adv"
	SEARCH  8:"\/\/jucamillo.com.br\/homolog\/wsb-advocacia" ====> "\/\/localhost:8080\/wsb-adv"
	SEARCH  9:"%2F%2Fjucamillo.com.br%2Fhomolog%2Fwsb-advocacia" => "%2F%2Flocalhost%3A8080%2Fwsb-adv"
	SEARCH 10:"//www.jucamillo.com.br/homolog/wsb-advocacia" ====> "//localhost:8080/wsb-adv"
	SEARCH 11:"\/\/www.jucamillo.com.br\/homolog\/wsb-advocacia" => "\/\/localhost:8080\/wsb-adv"
	SEARCH 12:"%2F%2Fwww.jucamillo.com.br%2Fhomolog%2Fwsb-advocacia" => "%2F%2Flocalhost%3A8080%2Fwsb-adv"
	SEARCH 13:"https://localhost:8080/wsb-adv" ==================> "http://localhost:8080/wsb-adv"
	SEARCH 14:"https:\/\/localhost:8080\/wsb-adv" ===============> "http:\/\/localhost:8080\/wsb-adv"
	SEARCH 15:"https%3A%2F%2Flocalhost%3A8080%2Fwsb-adv" ========> "http%3A%2F%2Flocalhost%3A8080%2Fwsb-adv"

EVALUATE TABLE: "wp_links"________________________________________[ROWS:     0][PG:   0][SCAN:no columns  ]

EVALUATE TABLE: "wp_options"______________________________________[ROWS:   447][PG:   1][SCAN:text columns]
	SEARCH  1:"/home2/jucamill/public_html/homolog/wsb-advocacia" => "/opt/lampp/htdocs/wsb-adv"
	SEARCH  2:"\/home2\/jucamill\/public_html\/homolog\/wsb-advocacia" => "\/opt\/lampp\/htdocs\/wsb-adv"
	SEARCH  3:"%2Fhome2%2Fjucamill%2Fpublic_html%2Fhomolog%2Fwsb-advocacia" => "%2Fopt%2Flampp%2Fhtdocs%2Fwsb-adv"
	SEARCH  4:"\home2\jucamill\public_html\homolog\wsb-advocacia" => "/opt/lampp/htdocs/wsb-adv"
	SEARCH  5:"\\home2\\jucamill\\public_html\\homolog\\wsb-advocacia" => "\/opt\/lampp\/htdocs\/wsb-adv"
	SEARCH  6:"%5Chome2%5Cjucamill%5Cpublic_html%5Chomolog%5Cwsb-advocacia" => "%2Fopt%2Flampp%2Fhtdocs%2Fwsb-adv"
	SEARCH  7:"//jucamillo.com.br/homolog/wsb-advocacia" ========> "//localhost:8080/wsb-adv"
	SEARCH  8:"\/\/jucamillo.com.br\/homolog\/wsb-advocacia" ====> "\/\/localhost:8080\/wsb-adv"
	SEARCH  9:"%2F%2Fjucamillo.com.br%2Fhomolog%2Fwsb-advocacia" => "%2F%2Flocalhost%3A8080%2Fwsb-adv"
	SEARCH 10:"//www.jucamillo.com.br/homolog/wsb-advocacia" ====> "//localhost:8080/wsb-adv"
	SEARCH 11:"\/\/www.jucamillo.com.br\/homolog\/wsb-advocacia" => "\/\/localhost:8080\/wsb-adv"
	SEARCH 12:"%2F%2Fwww.jucamillo.com.br%2Fhomolog%2Fwsb-advocacia" => "%2F%2Flocalhost%3A8080%2Fwsb-adv"
	SEARCH 13:"https://localhost:8080/wsb-adv" ==================> "http://localhost:8080/wsb-adv"
	SEARCH 14:"https:\/\/localhost:8080\/wsb-adv" ===============> "http:\/\/localhost:8080\/wsb-adv"
	SEARCH 15:"https%3A%2F%2Flocalhost%3A8080%2Fwsb-adv" ========> "http%3A%2F%2Flocalhost%3A8080%2Fwsb-adv"

EVALUATE TABLE: "wp_postmeta"_____________________________________[ROWS:  6040][PG:   2][SCAN:text columns]
	SEARCH  1:"/home2/jucamill/public_html/homolog/wsb-advocacia" => "/opt/lampp/htdocs/wsb-adv"
	SEARCH  2:"\/home2\/jucamill\/public_html\/homolog\/wsb-advocacia" => "\/opt\/lampp\/htdocs\/wsb-adv"
	SEARCH  3:"%2Fhome2%2Fjucamill%2Fpublic_html%2Fhomolog%2Fwsb-advocacia" => "%2Fopt%2Flampp%2Fhtdocs%2Fwsb-adv"
	SEARCH  4:"\home2\jucamill\public_html\homolog\wsb-advocacia" => "/opt/lampp/htdocs/wsb-adv"
	SEARCH  5:"\\home2\\jucamill\\public_html\\homolog\\wsb-advocacia" => "\/opt\/lampp\/htdocs\/wsb-adv"
	SEARCH  6:"%5Chome2%5Cjucamill%5Cpublic_html%5Chomolog%5Cwsb-advocacia" => "%2Fopt%2Flampp%2Fhtdocs%2Fwsb-adv"
	SEARCH  7:"//jucamillo.com.br/homolog/wsb-advocacia" ========> "//localhost:8080/wsb-adv"
	SEARCH  8:"\/\/jucamillo.com.br\/homolog\/wsb-advocacia" ====> "\/\/localhost:8080\/wsb-adv"
	SEARCH  9:"%2F%2Fjucamillo.com.br%2Fhomolog%2Fwsb-advocacia" => "%2F%2Flocalhost%3A8080%2Fwsb-adv"
	SEARCH 10:"//www.jucamillo.com.br/homolog/wsb-advocacia" ====> "//localhost:8080/wsb-adv"
	SEARCH 11:"\/\/www.jucamillo.com.br\/homolog\/wsb-advocacia" => "\/\/localhost:8080\/wsb-adv"
	SEARCH 12:"%2F%2Fwww.jucamillo.com.br%2Fhomolog%2Fwsb-advocacia" => "%2F%2Flocalhost%3A8080%2Fwsb-adv"
	SEARCH 13:"https://localhost:8080/wsb-adv" ==================> "http://localhost:8080/wsb-adv"
	SEARCH 14:"https:\/\/localhost:8080\/wsb-adv" ===============> "http:\/\/localhost:8080\/wsb-adv"
	SEARCH 15:"https%3A%2F%2Flocalhost%3A8080%2Fwsb-adv" ========> "http%3A%2F%2Flocalhost%3A8080%2Fwsb-adv"

EVALUATE TABLE: "wp_posts"________________________________________[ROWS:   368][PG:   1][SCAN:text columns]
	SEARCH  1:"/home2/jucamill/public_html/homolog/wsb-advocacia" => "/opt/lampp/htdocs/wsb-adv"
	SEARCH  2:"\/home2\/jucamill\/public_html\/homolog\/wsb-advocacia" => "\/opt\/lampp\/htdocs\/wsb-adv"
	SEARCH  3:"%2Fhome2%2Fjucamill%2Fpublic_html%2Fhomolog%2Fwsb-advocacia" => "%2Fopt%2Flampp%2Fhtdocs%2Fwsb-adv"
	SEARCH  4:"\home2\jucamill\public_html\homolog\wsb-advocacia" => "/opt/lampp/htdocs/wsb-adv"
	SEARCH  5:"\\home2\\jucamill\\public_html\\homolog\\wsb-advocacia" => "\/opt\/lampp\/htdocs\/wsb-adv"
	SEARCH  6:"%5Chome2%5Cjucamill%5Cpublic_html%5Chomolog%5Cwsb-advocacia" => "%2Fopt%2Flampp%2Fhtdocs%2Fwsb-adv"
	SEARCH  7:"//jucamillo.com.br/homolog/wsb-advocacia" ========> "//localhost:8080/wsb-adv"
	SEARCH  8:"\/\/jucamillo.com.br\/homolog\/wsb-advocacia" ====> "\/\/localhost:8080\/wsb-adv"
	SEARCH  9:"%2F%2Fjucamillo.com.br%2Fhomolog%2Fwsb-advocacia" => "%2F%2Flocalhost%3A8080%2Fwsb-adv"
	SEARCH 10:"//www.jucamillo.com.br/homolog/wsb-advocacia" ====> "//localhost:8080/wsb-adv"
	SEARCH 11:"\/\/www.jucamillo.com.br\/homolog\/wsb-advocacia" => "\/\/localhost:8080\/wsb-adv"
	SEARCH 12:"%2F%2Fwww.jucamillo.com.br%2Fhomolog%2Fwsb-advocacia" => "%2F%2Flocalhost%3A8080%2Fwsb-adv"
	SEARCH 13:"https://localhost:8080/wsb-adv" ==================> "http://localhost:8080/wsb-adv"
	SEARCH 14:"https:\/\/localhost:8080\/wsb-adv" ===============> "http:\/\/localhost:8080\/wsb-adv"
	SEARCH 15:"https%3A%2F%2Flocalhost%3A8080%2Fwsb-adv" ========> "http%3A%2F%2Flocalhost%3A8080%2Fwsb-adv"

EVALUATE TABLE: "wp_term_relationships"___________________________[ROWS:   127][PG:   1][SCAN:text columns]
	SEARCH  1:"/home2/jucamill/public_html/homolog/wsb-advocacia" => "/opt/lampp/htdocs/wsb-adv"
	SEARCH  2:"\/home2\/jucamill\/public_html\/homolog\/wsb-advocacia" => "\/opt\/lampp\/htdocs\/wsb-adv"
	SEARCH  3:"%2Fhome2%2Fjucamill%2Fpublic_html%2Fhomolog%2Fwsb-advocacia" => "%2Fopt%2Flampp%2Fhtdocs%2Fwsb-adv"
	SEARCH  4:"\home2\jucamill\public_html\homolog\wsb-advocacia" => "/opt/lampp/htdocs/wsb-adv"
	SEARCH  5:"\\home2\\jucamill\\public_html\\homolog\\wsb-advocacia" => "\/opt\/lampp\/htdocs\/wsb-adv"
	SEARCH  6:"%5Chome2%5Cjucamill%5Cpublic_html%5Chomolog%5Cwsb-advocacia" => "%2Fopt%2Flampp%2Fhtdocs%2Fwsb-adv"
	SEARCH  7:"//jucamillo.com.br/homolog/wsb-advocacia" ========> "//localhost:8080/wsb-adv"
	SEARCH  8:"\/\/jucamillo.com.br\/homolog\/wsb-advocacia" ====> "\/\/localhost:8080\/wsb-adv"
	SEARCH  9:"%2F%2Fjucamillo.com.br%2Fhomolog%2Fwsb-advocacia" => "%2F%2Flocalhost%3A8080%2Fwsb-adv"
	SEARCH 10:"//www.jucamillo.com.br/homolog/wsb-advocacia" ====> "//localhost:8080/wsb-adv"
	SEARCH 11:"\/\/www.jucamillo.com.br\/homolog\/wsb-advocacia" => "\/\/localhost:8080\/wsb-adv"
	SEARCH 12:"%2F%2Fwww.jucamillo.com.br%2Fhomolog%2Fwsb-advocacia" => "%2F%2Flocalhost%3A8080%2Fwsb-adv"
	SEARCH 13:"https://localhost:8080/wsb-adv" ==================> "http://localhost:8080/wsb-adv"
	SEARCH 14:"https:\/\/localhost:8080\/wsb-adv" ===============> "http:\/\/localhost:8080\/wsb-adv"
	SEARCH 15:"https%3A%2F%2Flocalhost%3A8080%2Fwsb-adv" ========> "http%3A%2F%2Flocalhost%3A8080%2Fwsb-adv"

EVALUATE TABLE: "wp_term_taxonomy"________________________________[ROWS:    19][PG:   1][SCAN:text columns]
	SEARCH  1:"/home2/jucamill/public_html/homolog/wsb-advocacia" => "/opt/lampp/htdocs/wsb-adv"
	SEARCH  2:"\/home2\/jucamill\/public_html\/homolog\/wsb-advocacia" => "\/opt\/lampp\/htdocs\/wsb-adv"
	SEARCH  3:"%2Fhome2%2Fjucamill%2Fpublic_html%2Fhomolog%2Fwsb-advocacia" => "%2Fopt%2Flampp%2Fhtdocs%2Fwsb-adv"
	SEARCH  4:"\home2\jucamill\public_html\homolog\wsb-advocacia" => "/opt/lampp/htdocs/wsb-adv"
	SEARCH  5:"\\home2\\jucamill\\public_html\\homolog\\wsb-advocacia" => "\/opt\/lampp\/htdocs\/wsb-adv"
	SEARCH  6:"%5Chome2%5Cjucamill%5Cpublic_html%5Chomolog%5Cwsb-advocacia" => "%2Fopt%2Flampp%2Fhtdocs%2Fwsb-adv"
	SEARCH  7:"//jucamillo.com.br/homolog/wsb-advocacia" ========> "//localhost:8080/wsb-adv"
	SEARCH  8:"\/\/jucamillo.com.br\/homolog\/wsb-advocacia" ====> "\/\/localhost:8080\/wsb-adv"
	SEARCH  9:"%2F%2Fjucamillo.com.br%2Fhomolog%2Fwsb-advocacia" => "%2F%2Flocalhost%3A8080%2Fwsb-adv"
	SEARCH 10:"//www.jucamillo.com.br/homolog/wsb-advocacia" ====> "//localhost:8080/wsb-adv"
	SEARCH 11:"\/\/www.jucamillo.com.br\/homolog\/wsb-advocacia" => "\/\/localhost:8080\/wsb-adv"
	SEARCH 12:"%2F%2Fwww.jucamillo.com.br%2Fhomolog%2Fwsb-advocacia" => "%2F%2Flocalhost%3A8080%2Fwsb-adv"
	SEARCH 13:"https://localhost:8080/wsb-adv" ==================> "http://localhost:8080/wsb-adv"
	SEARCH 14:"https:\/\/localhost:8080\/wsb-adv" ===============> "http:\/\/localhost:8080\/wsb-adv"
	SEARCH 15:"https%3A%2F%2Flocalhost%3A8080%2Fwsb-adv" ========> "http%3A%2F%2Flocalhost%3A8080%2Fwsb-adv"

EVALUATE TABLE: "wp_termmeta"_____________________________________[ROWS:     0][PG:   0][SCAN:no columns  ]

EVALUATE TABLE: "wp_terms"________________________________________[ROWS:    19][PG:   1][SCAN:text columns]
	SEARCH  1:"/home2/jucamill/public_html/homolog/wsb-advocacia" => "/opt/lampp/htdocs/wsb-adv"
	SEARCH  2:"\/home2\/jucamill\/public_html\/homolog\/wsb-advocacia" => "\/opt\/lampp\/htdocs\/wsb-adv"
	SEARCH  3:"%2Fhome2%2Fjucamill%2Fpublic_html%2Fhomolog%2Fwsb-advocacia" => "%2Fopt%2Flampp%2Fhtdocs%2Fwsb-adv"
	SEARCH  4:"\home2\jucamill\public_html\homolog\wsb-advocacia" => "/opt/lampp/htdocs/wsb-adv"
	SEARCH  5:"\\home2\\jucamill\\public_html\\homolog\\wsb-advocacia" => "\/opt\/lampp\/htdocs\/wsb-adv"
	SEARCH  6:"%5Chome2%5Cjucamill%5Cpublic_html%5Chomolog%5Cwsb-advocacia" => "%2Fopt%2Flampp%2Fhtdocs%2Fwsb-adv"
	SEARCH  7:"//jucamillo.com.br/homolog/wsb-advocacia" ========> "//localhost:8080/wsb-adv"
	SEARCH  8:"\/\/jucamillo.com.br\/homolog\/wsb-advocacia" ====> "\/\/localhost:8080\/wsb-adv"
	SEARCH  9:"%2F%2Fjucamillo.com.br%2Fhomolog%2Fwsb-advocacia" => "%2F%2Flocalhost%3A8080%2Fwsb-adv"
	SEARCH 10:"//www.jucamillo.com.br/homolog/wsb-advocacia" ====> "//localhost:8080/wsb-adv"
	SEARCH 11:"\/\/www.jucamillo.com.br\/homolog\/wsb-advocacia" => "\/\/localhost:8080\/wsb-adv"
	SEARCH 12:"%2F%2Fwww.jucamillo.com.br%2Fhomolog%2Fwsb-advocacia" => "%2F%2Flocalhost%3A8080%2Fwsb-adv"
	SEARCH 13:"https://localhost:8080/wsb-adv" ==================> "http://localhost:8080/wsb-adv"
	SEARCH 14:"https:\/\/localhost:8080\/wsb-adv" ===============> "http:\/\/localhost:8080\/wsb-adv"
	SEARCH 15:"https%3A%2F%2Flocalhost%3A8080%2Fwsb-adv" ========> "http%3A%2F%2Flocalhost%3A8080%2Fwsb-adv"

EVALUATE TABLE: "wp_usermeta"_____________________________________[ROWS:    39][PG:   1][SCAN:text columns]
	SEARCH  1:"/home2/jucamill/public_html/homolog/wsb-advocacia" => "/opt/lampp/htdocs/wsb-adv"
	SEARCH  2:"\/home2\/jucamill\/public_html\/homolog\/wsb-advocacia" => "\/opt\/lampp\/htdocs\/wsb-adv"
	SEARCH  3:"%2Fhome2%2Fjucamill%2Fpublic_html%2Fhomolog%2Fwsb-advocacia" => "%2Fopt%2Flampp%2Fhtdocs%2Fwsb-adv"
	SEARCH  4:"\home2\jucamill\public_html\homolog\wsb-advocacia" => "/opt/lampp/htdocs/wsb-adv"
	SEARCH  5:"\\home2\\jucamill\\public_html\\homolog\\wsb-advocacia" => "\/opt\/lampp\/htdocs\/wsb-adv"
	SEARCH  6:"%5Chome2%5Cjucamill%5Cpublic_html%5Chomolog%5Cwsb-advocacia" => "%2Fopt%2Flampp%2Fhtdocs%2Fwsb-adv"
	SEARCH  7:"//jucamillo.com.br/homolog/wsb-advocacia" ========> "//localhost:8080/wsb-adv"
	SEARCH  8:"\/\/jucamillo.com.br\/homolog\/wsb-advocacia" ====> "\/\/localhost:8080\/wsb-adv"
	SEARCH  9:"%2F%2Fjucamillo.com.br%2Fhomolog%2Fwsb-advocacia" => "%2F%2Flocalhost%3A8080%2Fwsb-adv"
	SEARCH 10:"//www.jucamillo.com.br/homolog/wsb-advocacia" ====> "//localhost:8080/wsb-adv"
	SEARCH 11:"\/\/www.jucamillo.com.br\/homolog\/wsb-advocacia" => "\/\/localhost:8080\/wsb-adv"
	SEARCH 12:"%2F%2Fwww.jucamillo.com.br%2Fhomolog%2Fwsb-advocacia" => "%2F%2Flocalhost%3A8080%2Fwsb-adv"
	SEARCH 13:"https://localhost:8080/wsb-adv" ==================> "http://localhost:8080/wsb-adv"
	SEARCH 14:"https:\/\/localhost:8080\/wsb-adv" ===============> "http:\/\/localhost:8080\/wsb-adv"
	SEARCH 15:"https%3A%2F%2Flocalhost%3A8080%2Fwsb-adv" ========> "http%3A%2F%2Flocalhost%3A8080%2Fwsb-adv"

EVALUATE TABLE: "wp_users"________________________________________[ROWS:     1][PG:   1][SCAN:text columns]
	SEARCH  1:"/home2/jucamill/public_html/homolog/wsb-advocacia" => "/opt/lampp/htdocs/wsb-adv"
	SEARCH  2:"\/home2\/jucamill\/public_html\/homolog\/wsb-advocacia" => "\/opt\/lampp\/htdocs\/wsb-adv"
	SEARCH  3:"%2Fhome2%2Fjucamill%2Fpublic_html%2Fhomolog%2Fwsb-advocacia" => "%2Fopt%2Flampp%2Fhtdocs%2Fwsb-adv"
	SEARCH  4:"\home2\jucamill\public_html\homolog\wsb-advocacia" => "/opt/lampp/htdocs/wsb-adv"
	SEARCH  5:"\\home2\\jucamill\\public_html\\homolog\\wsb-advocacia" => "\/opt\/lampp\/htdocs\/wsb-adv"
	SEARCH  6:"%5Chome2%5Cjucamill%5Cpublic_html%5Chomolog%5Cwsb-advocacia" => "%2Fopt%2Flampp%2Fhtdocs%2Fwsb-adv"
	SEARCH  7:"//jucamillo.com.br/homolog/wsb-advocacia" ========> "//localhost:8080/wsb-adv"
	SEARCH  8:"\/\/jucamillo.com.br\/homolog\/wsb-advocacia" ====> "\/\/localhost:8080\/wsb-adv"
	SEARCH  9:"%2F%2Fjucamillo.com.br%2Fhomolog%2Fwsb-advocacia" => "%2F%2Flocalhost%3A8080%2Fwsb-adv"
	SEARCH 10:"//www.jucamillo.com.br/homolog/wsb-advocacia" ====> "//localhost:8080/wsb-adv"
	SEARCH 11:"\/\/www.jucamillo.com.br\/homolog\/wsb-advocacia" => "\/\/localhost:8080\/wsb-adv"
	SEARCH 12:"%2F%2Fwww.jucamillo.com.br%2Fhomolog%2Fwsb-advocacia" => "%2F%2Flocalhost%3A8080%2Fwsb-adv"
	SEARCH 13:"https://localhost:8080/wsb-adv" ==================> "http://localhost:8080/wsb-adv"
	SEARCH 14:"https:\/\/localhost:8080\/wsb-adv" ===============> "http:\/\/localhost:8080\/wsb-adv"
	SEARCH 15:"https%3A%2F%2Flocalhost%3A8080%2Fwsb-adv" ========> "http%3A%2F%2Flocalhost%3A8080%2Fwsb-adv"

EVALUATE TABLE: "wp_yoast_indexable"______________________________[ROWS:   166][PG:   1][SCAN:text columns]
	SEARCH  1:"/home2/jucamill/public_html/homolog/wsb-advocacia" => "/opt/lampp/htdocs/wsb-adv"
	SEARCH  2:"\/home2\/jucamill\/public_html\/homolog\/wsb-advocacia" => "\/opt\/lampp\/htdocs\/wsb-adv"
	SEARCH  3:"%2Fhome2%2Fjucamill%2Fpublic_html%2Fhomolog%2Fwsb-advocacia" => "%2Fopt%2Flampp%2Fhtdocs%2Fwsb-adv"
	SEARCH  4:"\home2\jucamill\public_html\homolog\wsb-advocacia" => "/opt/lampp/htdocs/wsb-adv"
	SEARCH  5:"\\home2\\jucamill\\public_html\\homolog\\wsb-advocacia" => "\/opt\/lampp\/htdocs\/wsb-adv"
	SEARCH  6:"%5Chome2%5Cjucamill%5Cpublic_html%5Chomolog%5Cwsb-advocacia" => "%2Fopt%2Flampp%2Fhtdocs%2Fwsb-adv"
	SEARCH  7:"//jucamillo.com.br/homolog/wsb-advocacia" ========> "//localhost:8080/wsb-adv"
	SEARCH  8:"\/\/jucamillo.com.br\/homolog\/wsb-advocacia" ====> "\/\/localhost:8080\/wsb-adv"
	SEARCH  9:"%2F%2Fjucamillo.com.br%2Fhomolog%2Fwsb-advocacia" => "%2F%2Flocalhost%3A8080%2Fwsb-adv"
	SEARCH 10:"//www.jucamillo.com.br/homolog/wsb-advocacia" ====> "//localhost:8080/wsb-adv"
	SEARCH 11:"\/\/www.jucamillo.com.br\/homolog\/wsb-advocacia" => "\/\/localhost:8080\/wsb-adv"
	SEARCH 12:"%2F%2Fwww.jucamillo.com.br%2Fhomolog%2Fwsb-advocacia" => "%2F%2Flocalhost%3A8080%2Fwsb-adv"
	SEARCH 13:"https://localhost:8080/wsb-adv" ==================> "http://localhost:8080/wsb-adv"
	SEARCH 14:"https:\/\/localhost:8080\/wsb-adv" ===============> "http:\/\/localhost:8080\/wsb-adv"
	SEARCH 15:"https%3A%2F%2Flocalhost%3A8080%2Fwsb-adv" ========> "http%3A%2F%2Flocalhost%3A8080%2Fwsb-adv"

EVALUATE TABLE: "wp_yoast_indexable_hierarchy"____________________[ROWS:     2][PG:   1][SCAN:text columns]
	SEARCH  1:"/home2/jucamill/public_html/homolog/wsb-advocacia" => "/opt/lampp/htdocs/wsb-adv"
	SEARCH  2:"\/home2\/jucamill\/public_html\/homolog\/wsb-advocacia" => "\/opt\/lampp\/htdocs\/wsb-adv"
	SEARCH  3:"%2Fhome2%2Fjucamill%2Fpublic_html%2Fhomolog%2Fwsb-advocacia" => "%2Fopt%2Flampp%2Fhtdocs%2Fwsb-adv"
	SEARCH  4:"\home2\jucamill\public_html\homolog\wsb-advocacia" => "/opt/lampp/htdocs/wsb-adv"
	SEARCH  5:"\\home2\\jucamill\\public_html\\homolog\\wsb-advocacia" => "\/opt\/lampp\/htdocs\/wsb-adv"
	SEARCH  6:"%5Chome2%5Cjucamill%5Cpublic_html%5Chomolog%5Cwsb-advocacia" => "%2Fopt%2Flampp%2Fhtdocs%2Fwsb-adv"
	SEARCH  7:"//jucamillo.com.br/homolog/wsb-advocacia" ========> "//localhost:8080/wsb-adv"
	SEARCH  8:"\/\/jucamillo.com.br\/homolog\/wsb-advocacia" ====> "\/\/localhost:8080\/wsb-adv"
	SEARCH  9:"%2F%2Fjucamillo.com.br%2Fhomolog%2Fwsb-advocacia" => "%2F%2Flocalhost%3A8080%2Fwsb-adv"
	SEARCH 10:"//www.jucamillo.com.br/homolog/wsb-advocacia" ====> "//localhost:8080/wsb-adv"
	SEARCH 11:"\/\/www.jucamillo.com.br\/homolog\/wsb-advocacia" => "\/\/localhost:8080\/wsb-adv"
	SEARCH 12:"%2F%2Fwww.jucamillo.com.br%2Fhomolog%2Fwsb-advocacia" => "%2F%2Flocalhost%3A8080%2Fwsb-adv"
	SEARCH 13:"https://localhost:8080/wsb-adv" ==================> "http://localhost:8080/wsb-adv"
	SEARCH 14:"https:\/\/localhost:8080\/wsb-adv" ===============> "http:\/\/localhost:8080\/wsb-adv"
	SEARCH 15:"https%3A%2F%2Flocalhost%3A8080%2Fwsb-adv" ========> "http%3A%2F%2Flocalhost%3A8080%2Fwsb-adv"

EVALUATE TABLE: "wp_yoast_migrations"_____________________________[ROWS:    18][PG:   1][SCAN:text columns]
	SEARCH  1:"/home2/jucamill/public_html/homolog/wsb-advocacia" => "/opt/lampp/htdocs/wsb-adv"
	SEARCH  2:"\/home2\/jucamill\/public_html\/homolog\/wsb-advocacia" => "\/opt\/lampp\/htdocs\/wsb-adv"
	SEARCH  3:"%2Fhome2%2Fjucamill%2Fpublic_html%2Fhomolog%2Fwsb-advocacia" => "%2Fopt%2Flampp%2Fhtdocs%2Fwsb-adv"
	SEARCH  4:"\home2\jucamill\public_html\homolog\wsb-advocacia" => "/opt/lampp/htdocs/wsb-adv"
	SEARCH  5:"\\home2\\jucamill\\public_html\\homolog\\wsb-advocacia" => "\/opt\/lampp\/htdocs\/wsb-adv"
	SEARCH  6:"%5Chome2%5Cjucamill%5Cpublic_html%5Chomolog%5Cwsb-advocacia" => "%2Fopt%2Flampp%2Fhtdocs%2Fwsb-adv"
	SEARCH  7:"//jucamillo.com.br/homolog/wsb-advocacia" ========> "//localhost:8080/wsb-adv"
	SEARCH  8:"\/\/jucamillo.com.br\/homolog\/wsb-advocacia" ====> "\/\/localhost:8080\/wsb-adv"
	SEARCH  9:"%2F%2Fjucamillo.com.br%2Fhomolog%2Fwsb-advocacia" => "%2F%2Flocalhost%3A8080%2Fwsb-adv"
	SEARCH 10:"//www.jucamillo.com.br/homolog/wsb-advocacia" ====> "//localhost:8080/wsb-adv"
	SEARCH 11:"\/\/www.jucamillo.com.br\/homolog\/wsb-advocacia" => "\/\/localhost:8080\/wsb-adv"
	SEARCH 12:"%2F%2Fwww.jucamillo.com.br%2Fhomolog%2Fwsb-advocacia" => "%2F%2Flocalhost%3A8080%2Fwsb-adv"
	SEARCH 13:"https://localhost:8080/wsb-adv" ==================> "http://localhost:8080/wsb-adv"
	SEARCH 14:"https:\/\/localhost:8080\/wsb-adv" ===============> "http:\/\/localhost:8080\/wsb-adv"
	SEARCH 15:"https%3A%2F%2Flocalhost%3A8080%2Fwsb-adv" ========> "http%3A%2F%2Flocalhost%3A8080%2Fwsb-adv"

EVALUATE TABLE: "wp_yoast_primary_term"___________________________[ROWS:     0][PG:   0][SCAN:no columns  ]

EVALUATE TABLE: "wp_yoast_seo_links"______________________________[ROWS:   133][PG:   1][SCAN:text columns]
	SEARCH  1:"/home2/jucamill/public_html/homolog/wsb-advocacia" => "/opt/lampp/htdocs/wsb-adv"
	SEARCH  2:"\/home2\/jucamill\/public_html\/homolog\/wsb-advocacia" => "\/opt\/lampp\/htdocs\/wsb-adv"
	SEARCH  3:"%2Fhome2%2Fjucamill%2Fpublic_html%2Fhomolog%2Fwsb-advocacia" => "%2Fopt%2Flampp%2Fhtdocs%2Fwsb-adv"
	SEARCH  4:"\home2\jucamill\public_html\homolog\wsb-advocacia" => "/opt/lampp/htdocs/wsb-adv"
	SEARCH  5:"\\home2\\jucamill\\public_html\\homolog\\wsb-advocacia" => "\/opt\/lampp\/htdocs\/wsb-adv"
	SEARCH  6:"%5Chome2%5Cjucamill%5Cpublic_html%5Chomolog%5Cwsb-advocacia" => "%2Fopt%2Flampp%2Fhtdocs%2Fwsb-adv"
	SEARCH  7:"//jucamillo.com.br/homolog/wsb-advocacia" ========> "//localhost:8080/wsb-adv"
	SEARCH  8:"\/\/jucamillo.com.br\/homolog\/wsb-advocacia" ====> "\/\/localhost:8080\/wsb-adv"
	SEARCH  9:"%2F%2Fjucamillo.com.br%2Fhomolog%2Fwsb-advocacia" => "%2F%2Flocalhost%3A8080%2Fwsb-adv"
	SEARCH 10:"//www.jucamillo.com.br/homolog/wsb-advocacia" ====> "//localhost:8080/wsb-adv"
	SEARCH 11:"\/\/www.jucamillo.com.br\/homolog\/wsb-advocacia" => "\/\/localhost:8080\/wsb-adv"
	SEARCH 12:"%2F%2Fwww.jucamillo.com.br%2Fhomolog%2Fwsb-advocacia" => "%2F%2Flocalhost%3A8080%2Fwsb-adv"
	SEARCH 13:"https://localhost:8080/wsb-adv" ==================> "http://localhost:8080/wsb-adv"
	SEARCH 14:"https:\/\/localhost:8080\/wsb-adv" ===============> "http:\/\/localhost:8080\/wsb-adv"
	SEARCH 15:"https%3A%2F%2Flocalhost%3A8080%2Fwsb-adv" ========> "http%3A%2F%2Flocalhost%3A8080%2Fwsb-adv"
--------------------------------------
SCANNED:	Tables:42 	|	 Rows:12045 	|	 Cells:66077 
UPDATED:	Tables:9 	|	 Rows:573 	|	 Cells:829 
ERRORS:		0 
RUNTIME:	0.201400 sec

====================================
REMOVE LICENSE KEY
====================================

====================================
CREATE NEW ADMIN USER
====================================

====================================
CONFIGURATION FILE UPDATES
====================================
	UPDATE DB_NAME ""wsb-adv""
	UPDATE DB_USER ""root""
	UPDATE DB_PASSWORD "** OBSCURED **"
	UPDATE DB_HOST ""localhost""
	UPDATE WP_CACHE true
	REMOVE WPCACHEHOME
	
*** UPDATED WP CONFIG FILE ***

====================================
HTACCESS UPDATE MODE: "NEW"
====================================
- PASS: Successfully created a new .htaccess file.
- PASS: Existing Apache '.htaccess__[HASH]' was removed

====================================
GENERAL UPDATES & CLEANUP
====================================

====================================
DEACTIVATE PLUGINS CHECK
====================================
Deactivated plugins list here: Array
(
    [0] => really-simple-ssl/rlrsssl-really-simple-ssl.php
    [1] => simple-google-recaptcha/simple-google-recaptcha.php
    [2] => js_composer/js_composer.php
)


====================================
NOTICES TEST
====================================
No General Notices Found


====================================
CLEANUP TMP FILES
====================================

====================================
FINAL REPORT NOTICES
====================================

STEP-3 COMPLETE @ 10:45:27 - RUNTIME: 0.2159 sec. 


====================================
FINAL REPORT NOTICES LIST
====================================
-----------------------
[INFO] No general notices
	SECTIONS: general

-----------------------
[INFO] No errors in database
	SECTIONS: database

-----------------------
[INFO] No search and replace data errors
	SECTIONS: search_replace

-----------------------
[INFO] No files extraction errors
	SECTIONS: files

====================================
