<svg width="18" height="24" viewBox="0 0 18 24" fill="none" xmlns="http://www.w3.org/2000/svg">
<path d="M8 0V16.5625L2.71875 11.2812L1.28125 12.7188L8.28125 19.7188L9 20.4062L9.71875 19.7188L16.7188 12.7188L15.2812 11.2812L10 16.5625V0H8ZM0 22V24H18V22H0Z" fill="#2A437A"/>
</svg>
