<svg width="16" height="16" viewBox="0 0 16 16" fill="none" xmlns="http://www.w3.org/2000/svg">
<path d="M4.88477 0.1875C4.08268 0.1875 3.33789 0.388021 2.65039 0.789062C1.97721 1.1901 1.4401 1.73438 1.03906 2.42188C0.638021 3.09505 0.4375 3.83268 0.4375 4.63477V10.8652C0.4375 11.6673 0.638021 12.4121 1.03906 13.0996C1.4401 13.7728 1.97721 14.3099 2.65039 14.7109C3.33789 15.112 4.08268 15.3125 4.88477 15.3125H11.1152C11.9173 15.3125 12.6549 15.112 13.3281 14.7109C14.0156 14.3099 14.5599 13.7728 14.9609 13.0996C15.362 12.4121 15.5625 11.6673 15.5625 10.8652V4.63477C15.5625 3.83268 15.362 3.09505 14.9609 2.42188C14.5599 1.73438 14.0156 1.1901 13.3281 0.789062C12.6549 0.388021 11.9173 0.1875 11.1152 0.1875H4.88477ZM4.88477 1.5625H11.1152C11.6738 1.5625 12.1895 1.69857 12.6621 1.9707C13.1348 2.24284 13.5072 2.61523 13.7793 3.08789C14.0514 3.56055 14.1875 4.07617 14.1875 4.63477V10.8652C14.1875 11.4238 14.0514 11.9395 13.7793 12.4121C13.5072 12.8848 13.1348 13.2572 12.6621 13.5293C12.1895 13.8014 11.6738 13.9375 11.1152 13.9375H4.88477C4.32617 13.9375 3.81055 13.8014 3.33789 13.5293C2.86523 13.2572 2.49284 12.8848 2.2207 12.4121C1.94857 11.9395 1.8125 11.4238 1.8125 10.8652V4.63477C1.8125 4.07617 1.94857 3.56055 2.2207 3.08789C2.49284 2.61523 2.86523 2.24284 3.33789 1.9707C3.81055 1.69857 4.32617 1.5625 4.88477 1.5625ZM12.0605 3.06641C11.8887 3.06641 11.7383 3.13086 11.6094 3.25977C11.4948 3.37435 11.4375 3.51758 11.4375 3.68945C11.4375 3.86133 11.4948 4.01172 11.6094 4.14062C11.7383 4.25521 11.8887 4.3125 12.0605 4.3125C12.2324 4.3125 12.3757 4.25521 12.4902 4.14062C12.6191 4.01172 12.6836 3.86133 12.6836 3.68945C12.6836 3.51758 12.6191 3.37435 12.4902 3.25977C12.3757 3.13086 12.2324 3.06641 12.0605 3.06641ZM8 3.625C7.25521 3.625 6.56771 3.8112 5.9375 4.18359C5.30729 4.55599 4.80599 5.05729 4.43359 5.6875C4.0612 6.31771 3.875 7.00521 3.875 7.75C3.875 8.49479 4.0612 9.18229 4.43359 9.8125C4.80599 10.4427 5.30729 10.944 5.9375 11.3164C6.56771 11.6888 7.25521 11.875 8 11.875C8.74479 11.875 9.43229 11.6888 10.0625 11.3164C10.6927 10.944 11.194 10.4427 11.5664 9.8125C11.9388 9.18229 12.125 8.49479 12.125 7.75C12.125 7.00521 11.9388 6.31771 11.5664 5.6875C11.194 5.05729 10.6927 4.55599 10.0625 4.18359C9.43229 3.8112 8.74479 3.625 8 3.625ZM8 5C8.5013 5 8.95964 5.12174 9.375 5.36523C9.80469 5.60872 10.1413 5.94531 10.3848 6.375C10.6283 6.79036 10.75 7.2487 10.75 7.75C10.75 8.2513 10.6283 8.7168 10.3848 9.14648C10.1413 9.56185 9.80469 9.89128 9.375 10.1348C8.95964 10.3783 8.5013 10.5 8 10.5C7.4987 10.5 7.0332 10.3783 6.60352 10.1348C6.18815 9.89128 5.85872 9.56185 5.61523 9.14648C5.37174 8.7168 5.25 8.2513 5.25 7.75C5.25 7.2487 5.37174 6.79036 5.61523 6.375C5.85872 5.94531 6.18815 5.60872 6.60352 5.36523C7.0332 5.12174 7.4987 5 8 5Z" fill="#2A437A"/>
</svg>
