<svg width="15" height="16" viewBox="0 0 15 16" fill="none" xmlns="http://www.w3.org/2000/svg">
<path d="M1.95117 0.5C1.44987 0.5 1.02018 0.679036 0.662109 1.03711C0.304036 1.38086 0.125 1.81055 0.125 2.32617C0.125 2.82747 0.304036 3.25716 0.662109 3.61523C1.02018 3.97331 1.44271 4.15234 1.92969 4.15234C2.43099 4.15234 2.86068 3.97331 3.21875 3.61523C3.57682 3.25716 3.75586 2.82747 3.75586 2.32617C3.75586 1.82487 3.57682 1.39518 3.21875 1.03711C2.875 0.679036 2.45247 0.5 1.95117 0.5ZM10.8027 5.3125C10.1009 5.3125 9.49219 5.47721 8.97656 5.80664C8.5612 6.07878 8.23177 6.44401 7.98828 6.90234H7.94531V5.52734H4.9375V15.625H8.07422V10.6191C8.07422 10.0749 8.10286 9.65951 8.16016 9.37305C8.24609 8.94336 8.40365 8.62109 8.63281 8.40625C8.90495 8.16276 9.29167 8.04102 9.79297 8.04102C10.2943 8.04102 10.6738 8.18424 10.9316 8.4707C11.1465 8.69987 11.2897 9.04362 11.3613 9.50195C11.4043 9.77409 11.4258 10.1751 11.4258 10.7051V15.625H14.5625V10.082C14.5625 9.0651 14.4694 8.2487 14.2832 7.63281C14.0684 6.88802 13.7031 6.32227 13.1875 5.93555C12.6146 5.52018 11.8197 5.3125 10.8027 5.3125ZM0.382812 5.52734V15.625H3.51953V5.52734H0.382812Z" fill="#2A437A"/>
</svg>
