<?xml version="1.0" encoding="utf-8"?>
<!-- Generator: Adobe Illustrator 24.0.1, SVG Export Plug-In . SVG Version: 6.00 Build 0)  -->
<svg version="1.1" id="Camada_1" xmlns="http://www.w3.org/2000/svg" xmlns:xlink="http://www.w3.org/1999/xlink" x="0px" y="0px"
	 viewBox="0 0 1000 1861.6" style="enable-background:new 0 0 1000 1861.6;" xml:space="preserve">
<style type="text/css">
	.st0{opacity:0.4;fill:none;stroke:#959799;stroke-width:2;enable-background:new    ;}
	.st1{opacity:0.6;fill:none;stroke:#959799;stroke-width:2;enable-background:new    ;}
	.st2{opacity:0.3;fill:none;stroke:#959799;stroke-width:2;enable-background:new    ;}
	.st3{opacity:0.7;fill:none;stroke:#959799;stroke-width:2;enable-background:new    ;}
	.st4{opacity:0.5;fill:none;stroke:#959799;stroke-width:2;enable-background:new    ;}
	.st5{opacity:0.2;fill:none;stroke:#959799;stroke-width:2;enable-background:new    ;}
	.st6{opacity:0.8;fill:none;stroke:#959799;stroke-width:2;enable-background:new    ;}
	.st7{fill:#FFFFFF;}
</style>
<g>
	<path class="st0" d="M549.5,716.2L70,294.7"/>
	<path class="st0" d="M549,719.3l-144.4-322"/>
	<path class="st1" d="M549,718.4l54.8-544.4"/>
	<path class="st2" d="M670.3,968.6l-62.8-792.3"/>
	<path class="st3" d="M401.9,399.5L70,294.7"/>
	<path class="st4" d="M403.4,397.3l201.7-223.4"/>
	<path class="st5" d="M1000,0L603.9,170.3"/>
	<path class="st2" d="M1000,18.8L68.8,293.5"/>
	<path class="st0" d="M0,100.5l70,191.8"/>
	<path class="st3" d="M167.1,948.1L70,293.5"/>
	<line class="st6" x1="167.6" y1="946.4" x2="549.5" y2="717.1"/>
	<path class="st3" d="M669.1,971L549.3,720"/>
	<path class="st4" d="M326.1,1134.1L549,717.9"/>
	<path class="st2" d="M169.1,948.1L0,1153.1"/>
	<path class="st0" d="M1000,1861.6l-698.1-372.5"/>
	<path class="st0" d="M0,1794.2l300.7-303.9"/>
	<line class="st0" x1="173.7" y1="950.2" x2="299.3" y2="1489.9"/>
	<path class="st1" d="M326.1,1134.1l-24.2,355.1"/>
	<line class="st3" x1="521.5" y1="1290.8" x2="298.8" y2="1491.5"/>
	<path class="st5" d="M521.7,1293.5l478.3,428"/>
	<path class="st5" d="M172.9,948.8l153.1,185.3"/>
	<path class="st5" d="M669.1,967.4l-343,166.7"/>
	<path class="st6" d="M517.4,1290.6l-192.5-157.7"/>
	<path class="st5" d="M670.3,969.8l-148.6,320.8"/>
	<circle class="st7" cx="548.3" cy="716.2" r="12.1"/>
	<ellipse class="st7" cx="605.1" cy="173.9" rx="13.3" ry="13.3"/>
	<circle class="st7" cx="326.1" cy="1134.1" r="12.1"/>
	<circle class="st7" cx="669.1" cy="967.4" r="12.1"/>
	<circle class="st7" cx="521.7" cy="1293.5" r="12.1"/>
	<circle class="st7" cx="301.9" cy="1489.1" r="12.1"/>
	<circle class="st7" cx="169.1" cy="948.1" r="12.1"/>
	<circle class="st7" cx="70" cy="293.5" r="12.1"/>
	<circle class="st7" cx="404.6" cy="399.5" r="12.1"/>
</g>
</svg>
