<svg width="18" height="19" viewBox="0 0 18 19" fill="none" xmlns="http://www.w3.org/2000/svg">
<path d="M11.0625 0.8125C9.81641 0.8125 8.66341 1.1276 7.60352 1.75781C6.55794 2.35938 5.73438 3.18294 5.13281 4.22852C4.5026 5.28841 4.1875 6.44141 4.1875 7.6875C4.1875 8.50391 4.32357 9.28451 4.5957 10.0293C4.86784 10.7598 5.2474 11.4258 5.73438 12.0273L0.255859 17.5059L1.24414 18.4941L6.72266 13.0156C7.32422 13.5026 7.99023 13.8822 8.7207 14.1543C9.46549 14.4264 10.2461 14.5625 11.0625 14.5625C12.3086 14.5625 13.4616 14.2474 14.5215 13.6172C15.5671 13.0156 16.3906 12.1921 16.9922 11.1465C17.6224 10.0866 17.9375 8.93359 17.9375 7.6875C17.9375 6.44141 17.6224 5.28841 16.9922 4.22852C16.3906 3.18294 15.5671 2.35938 14.5215 1.75781C13.4616 1.1276 12.3086 0.8125 11.0625 0.8125ZM11.0625 2.1875C12.0651 2.1875 12.9818 2.43815 13.8125 2.93945C14.6576 3.42643 15.3236 4.09245 15.8105 4.9375C16.3118 5.76823 16.5625 6.6849 16.5625 7.6875C16.5625 8.6901 16.3118 9.61393 15.8105 10.459C15.3236 11.2897 14.6576 11.9557 13.8125 12.457C12.9818 12.944 12.0651 13.1875 11.0625 13.1875C10.0599 13.1875 9.13607 12.944 8.29102 12.457C7.46029 11.9557 6.79427 11.2897 6.29297 10.459C5.80599 9.61393 5.5625 8.6901 5.5625 7.6875C5.5625 6.6849 5.80599 5.76823 6.29297 4.9375C6.79427 4.09245 7.46029 3.42643 8.29102 2.93945C9.13607 2.43815 10.0599 2.1875 11.0625 2.1875Z" fill="#2A437A"/>
</svg>
